<svg width="36" height="36" viewBox="0 0 36 36" fill="none" xmlns="http://www.w3.org/2000/svg">
<g filter="url(#filter0_b_167_10971)">
<rect width="36" height="36" rx="18" fill="white" fill-opacity="0.25"/>
<path d="M21.4258 10.5C24.3609 10.5 26.3332 13.2938 26.3332 15.9C26.3332 21.1781 18.148 25.5 17.9998 25.5C17.8517 25.5 9.6665 21.1781 9.6665 15.9C9.6665 13.2938 11.6387 10.5 14.5739 10.5C16.2591 10.5 17.3609 11.3531 17.9998 12.1031C18.6387 11.3531 19.7406 10.5 21.4258 10.5Z" stroke="#F41313" stroke-width="1.66667" stroke-linecap="round" stroke-linejoin="round"/>
</g>
<defs>
<filter id="filter0_b_167_10971" x="-8" y="-8" width="52" height="52" filterUnits="userSpaceOnUse" color-interpolation-filters="sRGB">
<feFlood flood-opacity="0" result="BackgroundImageFix"/>
<feGaussianBlur in="BackgroundImageFix" stdDeviation="4"/>
<feComposite in2="SourceAlpha" operator="in" result="effect1_backgroundBlur_167_10971"/>
<feBlend mode="normal" in="SourceGraphic" in2="effect1_backgroundBlur_167_10971" result="shape"/>
</filter>
</defs>
</svg>
