<svg width="16" height="16" viewBox="0 0 16 16" fill="none" xmlns="http://www.w3.org/2000/svg">
<g clip-path="url(#clip0_167_10929)">
<path d="M7.53834 1.50999C7.70914 1.09934 8.29086 1.09934 8.46166 1.50999L9.99874 5.20558C10.0707 5.3787 10.2336 5.49698 10.4204 5.51197L14.4102 5.83182C14.8535 5.86736 15.0332 6.42062 14.6955 6.70995L11.6557 9.31381C11.5133 9.43578 11.4512 9.62717 11.4947 9.80955L12.4234 13.7028C12.5265 14.1354 12.0559 14.4774 11.6764 14.2455L8.26063 12.1592C8.10062 12.0615 7.89938 12.0615 7.73937 12.1592L4.32363 14.2455C3.94408 14.4774 3.47345 14.1354 3.57665 13.7028L4.50534 9.80955C4.54884 9.62717 4.48665 9.43578 4.34426 9.31381L1.30453 6.70995C0.966758 6.42062 1.14652 5.86736 1.58985 5.83182L5.57955 5.51197C5.76645 5.49698 5.92925 5.3787 6.00126 5.20558L7.53834 1.50999Z" fill="#F2F4F7"/>
<g clip-path="url(#clip1_167_10929)">
<path d="M7.53834 1.50999C7.70914 1.09934 8.29086 1.09934 8.46166 1.50999L9.99874 5.20558C10.0707 5.3787 10.2336 5.49698 10.4204 5.51197L14.4102 5.83182C14.8535 5.86736 15.0332 6.42062 14.6955 6.70995L11.6557 9.31381C11.5133 9.43578 11.4512 9.62717 11.4947 9.80955L12.4234 13.7028C12.5265 14.1354 12.0559 14.4774 11.6764 14.2455L8.26063 12.1592C8.10062 12.0615 7.89938 12.0615 7.73937 12.1592L4.32363 14.2455C3.94408 14.4774 3.47345 14.1354 3.57665 13.7028L4.50534 9.80955C4.54884 9.62717 4.48665 9.43578 4.34426 9.31381L1.30453 6.70995C0.966758 6.42062 1.14652 5.86736 1.58985 5.83182L5.57955 5.51197C5.76645 5.49698 5.92925 5.3787 6.00126 5.20558L7.53834 1.50999Z" fill="#FDB022"/>
</g>
</g>
<defs>
<clipPath id="clip0_167_10929">
<rect width="16" height="16" fill="white"/>
</clipPath>
<clipPath id="clip1_167_10929">
<rect width="16" height="16" fill="white"/>
</clipPath>
</defs>
</svg>
